<?xml version="1.0" encoding="UTF-8"?>
<dia:diagram xmlns:dia="http://www.lysator.liu.se/~alla/dia/">
  <dia:diagramdata>
    <dia:attribute name="background">
      <dia:color val="#ffffff"/>
    </dia:attribute>
    <dia:attribute name="pagebreak">
      <dia:color val="#000099"/>
    </dia:attribute>
    <dia:attribute name="paper">
      <dia:composite type="paper">
        <dia:attribute name="name">
          <dia:string>#A4#</dia:string>
        </dia:attribute>
        <dia:attribute name="tmargin">
          <dia:real val="2.8222000598907471"/>
        </dia:attribute>
        <dia:attribute name="bmargin">
          <dia:real val="2.8222000598907471"/>
        </dia:attribute>
        <dia:attribute name="lmargin">
          <dia:real val="2.8222000598907471"/>
        </dia:attribute>
        <dia:attribute name="rmargin">
          <dia:real val="2.8222000598907471"/>
        </dia:attribute>
        <dia:attribute name="is_portrait">
          <dia:boolean val="true"/>
        </dia:attribute>
        <dia:attribute name="scaling">
          <dia:real val="1"/>
        </dia:attribute>
        <dia:attribute name="fitto">
          <dia:boolean val="false"/>
        </dia:attribute>
      </dia:composite>
    </dia:attribute>
    <dia:attribute name="grid">
      <dia:composite type="grid">
        <dia:attribute name="width_x">
          <dia:real val="1"/>
        </dia:attribute>
        <dia:attribute name="width_y">
          <dia:real val="1"/>
        </dia:attribute>
        <dia:attribute name="visible_x">
          <dia:int val="1"/>
        </dia:attribute>
        <dia:attribute name="visible_y">
          <dia:int val="1"/>
        </dia:attribute>
        <dia:composite type="color"/>
      </dia:composite>
    </dia:attribute>
    <dia:attribute name="color">
      <dia:color val="#d8e5e5"/>
    </dia:attribute>
    <dia:attribute name="guides">
      <dia:composite type="guides">
        <dia:attribute name="hguides"/>
        <dia:attribute name="vguides"/>
      </dia:composite>
    </dia:attribute>
  </dia:diagramdata>
  <dia:layer name="Hintergrund" visible="true" active="true">
    <dia:object type="UML - Object" version="0" id="O0">
      <dia:attribute name="obj_pos">
        <dia:point val="3,8"/>
      </dia:attribute>
      <dia:attribute name="obj_bb">
        <dia:rectangle val="2.95,7.95;5.735,9.85"/>
      </dia:attribute>
      <dia:attribute name="meta">
        <dia:composite type="dict"/>
      </dia:attribute>
      <dia:attribute name="elem_corner">
        <dia:point val="3,8"/>
      </dia:attribute>
      <dia:attribute name="elem_width">
        <dia:real val="2.6850000000000001"/>
      </dia:attribute>
      <dia:attribute name="elem_height">
        <dia:real val="1.8000000000000007"/>
      </dia:attribute>
      <dia:attribute name="line_width">
        <dia:real val="0.10000000000000001"/>
      </dia:attribute>
      <dia:attribute name="text_colour">
        <dia:color val="#000000"/>
      </dia:attribute>
      <dia:attribute name="line_colour">
        <dia:color val="#000000"/>
      </dia:attribute>
      <dia:attribute name="fill_colour">
        <dia:color val="#ffffff"/>
      </dia:attribute>
      <dia:attribute name="text">
        <dia:composite type="text">
          <dia:attribute name="string">
            <dia:string>#Actor#</dia:string>
          </dia:attribute>
          <dia:attribute name="font">
            <dia:font family="sans" style="0" name="Helvetica"/>
          </dia:attribute>
          <dia:attribute name="height">
            <dia:real val="0.80000000000000004"/>
          </dia:attribute>
          <dia:attribute name="pos">
            <dia:point val="4.3425,9.095"/>
          </dia:attribute>
          <dia:attribute name="color">
            <dia:color val="#000000"/>
          </dia:attribute>
          <dia:attribute name="alignment">
            <dia:enum val="1"/>
          </dia:attribute>
        </dia:composite>
      </dia:attribute>
      <dia:attribute name="stereotype">
        <dia:string>##</dia:string>
      </dia:attribute>
      <dia:attribute name="exstate">
        <dia:string>##</dia:string>
      </dia:attribute>
      <dia:attribute name="attrib">
        <dia:composite type="text">
          <dia:attribute name="string">
            <dia:string>##</dia:string>
          </dia:attribute>
          <dia:attribute name="font">
            <dia:font family="sans" style="0" name="Helvetica"/>
          </dia:attribute>
          <dia:attribute name="height">
            <dia:real val="0.80000000000000004"/>
          </dia:attribute>
          <dia:attribute name="pos">
            <dia:point val="0,0"/>
          </dia:attribute>
          <dia:attribute name="color">
            <dia:color val="#000000"/>
          </dia:attribute>
          <dia:attribute name="alignment">
            <dia:enum val="0"/>
          </dia:attribute>
        </dia:composite>
      </dia:attribute>
      <dia:attribute name="is_active">
        <dia:boolean val="false"/>
      </dia:attribute>
      <dia:attribute name="show_attribs">
        <dia:boolean val="false"/>
      </dia:attribute>
      <dia:attribute name="multiple">
        <dia:boolean val="false"/>
      </dia:attribute>
    </dia:object>
    <dia:object type="UML - Lifeline" version="0" id="O1">
      <dia:attribute name="obj_pos">
        <dia:point val="4.3425,9.8"/>
      </dia:attribute>
      <dia:attribute name="obj_bb">
        <dia:rectangle val="3.9425,9.775;4.7425,35.025"/>
      </dia:attribute>
      <dia:attribute name="meta">
        <dia:composite type="dict"/>
      </dia:attribute>
      <dia:attribute name="conn_endpoints">
        <dia:point val="4.3425,9.8"/>
        <dia:point val="4.3425,35"/>
      </dia:attribute>
      <dia:attribute name="line_colour">
        <dia:color val="#000000"/>
      </dia:attribute>
      <dia:attribute name="fill_colour">
        <dia:color val="#ffffff"/>
      </dia:attribute>
      <dia:attribute name="rtop">
        <dia:real val="2.1999999999999993"/>
      </dia:attribute>
      <dia:attribute name="rbot">
        <dia:real val="22.199999999999999"/>
      </dia:attribute>
      <dia:attribute name="draw_focus">
        <dia:boolean val="true"/>
      </dia:attribute>
      <dia:attribute name="draw_cross">
        <dia:boolean val="false"/>
      </dia:attribute>
      <dia:attribute name="cpl_northwest">
        <dia:int val="9"/>
      </dia:attribute>
      <dia:attribute name="cpl_southwest">
        <dia:int val="9"/>
      </dia:attribute>
      <dia:attribute name="cpl_northeast">
        <dia:int val="9"/>
      </dia:attribute>
      <dia:attribute name="cpl_southeast">
        <dia:int val="9"/>
      </dia:attribute>
      <dia:connections>
        <dia:connection handle="0" to="O0" connection="6"/>
      </dia:connections>
    </dia:object>
    <dia:object type="UML - Object" version="0" id="O2">
      <dia:attribute name="obj_pos">
        <dia:point val="19,8"/>
      </dia:attribute>
      <dia:attribute name="obj_bb">
        <dia:rectangle val="18.95,7.95;25.0175,9.85"/>
      </dia:attribute>
      <dia:attribute name="meta">
        <dia:composite type="dict"/>
      </dia:attribute>
      <dia:attribute name="elem_corner">
        <dia:point val="19,8"/>
      </dia:attribute>
      <dia:attribute name="elem_width">
        <dia:real val="5.9674999999999994"/>
      </dia:attribute>
      <dia:attribute name="elem_height">
        <dia:real val="1.8000000000000007"/>
      </dia:attribute>
      <dia:attribute name="line_width">
        <dia:real val="0.10000000000000001"/>
      </dia:attribute>
      <dia:attribute name="text_colour">
        <dia:color val="#000000"/>
      </dia:attribute>
      <dia:attribute name="line_colour">
        <dia:color val="#000000"/>
      </dia:attribute>
      <dia:attribute name="fill_colour">
        <dia:color val="#ffffff"/>
      </dia:attribute>
      <dia:attribute name="text">
        <dia:composite type="text">
          <dia:attribute name="string">
            <dia:string>#Messprogramm#</dia:string>
          </dia:attribute>
          <dia:attribute name="font">
            <dia:font family="sans" style="0" name="Helvetica"/>
          </dia:attribute>
          <dia:attribute name="height">
            <dia:real val="0.80000000000000004"/>
          </dia:attribute>
          <dia:attribute name="pos">
            <dia:point val="21.9838,9.095"/>
          </dia:attribute>
          <dia:attribute name="color">
            <dia:color val="#000000"/>
          </dia:attribute>
          <dia:attribute name="alignment">
            <dia:enum val="1"/>
          </dia:attribute>
        </dia:composite>
      </dia:attribute>
      <dia:attribute name="stereotype">
        <dia:string>##</dia:string>
      </dia:attribute>
      <dia:attribute name="exstate">
        <dia:string>##</dia:string>
      </dia:attribute>
      <dia:attribute name="attrib">
        <dia:composite type="text">
          <dia:attribute name="string">
            <dia:string>##</dia:string>
          </dia:attribute>
          <dia:attribute name="font">
            <dia:font family="sans" style="0" name="Helvetica"/>
          </dia:attribute>
          <dia:attribute name="height">
            <dia:real val="0.80000000000000004"/>
          </dia:attribute>
          <dia:attribute name="pos">
            <dia:point val="0,0"/>
          </dia:attribute>
          <dia:attribute name="color">
            <dia:color val="#000000"/>
          </dia:attribute>
          <dia:attribute name="alignment">
            <dia:enum val="0"/>
          </dia:attribute>
        </dia:composite>
      </dia:attribute>
      <dia:attribute name="is_active">
        <dia:boolean val="false"/>
      </dia:attribute>
      <dia:attribute name="show_attribs">
        <dia:boolean val="false"/>
      </dia:attribute>
      <dia:attribute name="multiple">
        <dia:boolean val="false"/>
      </dia:attribute>
    </dia:object>
    <dia:object type="UML - Lifeline" version="0" id="O3">
      <dia:attribute name="obj_pos">
        <dia:point val="21.9838,9.8"/>
      </dia:attribute>
      <dia:attribute name="obj_bb">
        <dia:rectangle val="21.5837,9.775;22.3838,35.025"/>
      </dia:attribute>
      <dia:attribute name="meta">
        <dia:composite type="dict"/>
      </dia:attribute>
      <dia:attribute name="conn_endpoints">
        <dia:point val="21.9838,9.8"/>
        <dia:point val="21.9838,35"/>
      </dia:attribute>
      <dia:attribute name="line_colour">
        <dia:color val="#000000"/>
      </dia:attribute>
      <dia:attribute name="fill_colour">
        <dia:color val="#ffffff"/>
      </dia:attribute>
      <dia:attribute name="rtop">
        <dia:real val="2.1999999999999993"/>
      </dia:attribute>
      <dia:attribute name="rbot">
        <dia:real val="22.199999999999999"/>
      </dia:attribute>
      <dia:attribute name="draw_focus">
        <dia:boolean val="true"/>
      </dia:attribute>
      <dia:attribute name="draw_cross">
        <dia:boolean val="false"/>
      </dia:attribute>
      <dia:attribute name="cpl_northwest">
        <dia:int val="9"/>
      </dia:attribute>
      <dia:attribute name="cpl_southwest">
        <dia:int val="9"/>
      </dia:attribute>
      <dia:attribute name="cpl_northeast">
        <dia:int val="9"/>
      </dia:attribute>
      <dia:attribute name="cpl_southeast">
        <dia:int val="9"/>
      </dia:attribute>
      <dia:connections>
        <dia:connection handle="0" to="O2" connection="6"/>
      </dia:connections>
    </dia:object>
    <dia:object type="UML - Message" version="0" id="O4">
      <dia:attribute name="obj_pos">
        <dia:point val="4.6925,13"/>
      </dia:attribute>
      <dia:attribute name="obj_bb">
        <dia:rectangle val="4.6425,12.6;21.6837,13.7"/>
      </dia:attribute>
      <dia:attribute name="meta">
        <dia:composite type="dict"/>
      </dia:attribute>
      <dia:attribute name="conn_endpoints">
        <dia:point val="4.6925,13"/>
        <dia:point val="21.6337,13"/>
      </dia:attribute>
      <dia:attribute name="text_colour">
        <dia:color val="#000000"/>
      </dia:attribute>
      <dia:attribute name="line_colour">
        <dia:color val="#000000"/>
      </dia:attribute>
      <dia:attribute name="text">
        <dia:string>#initMessungStarten#</dia:string>
      </dia:attribute>
      <dia:attribute name="type">
        <dia:enum val="0"/>
      </dia:attribute>
      <dia:attribute name="text_pos">
        <dia:point val="13.1631,13.5"/>
      </dia:attribute>
      <dia:connections>
        <dia:connection handle="0" to="O1" connection="25"/>
        <dia:connection handle="1" to="O3" connection="7"/>
      </dia:connections>
    </dia:object>
    <dia:object type="UML - Message" version="0" id="O5">
      <dia:attribute name="obj_pos">
        <dia:point val="4.6925,16"/>
      </dia:attribute>
      <dia:attribute name="obj_bb">
        <dia:rectangle val="4.6425,15.6;21.6837,16.7"/>
      </dia:attribute>
      <dia:attribute name="meta">
        <dia:composite type="dict"/>
      </dia:attribute>
      <dia:attribute name="conn_endpoints">
        <dia:point val="4.6925,16"/>
        <dia:point val="21.6337,16"/>
      </dia:attribute>
      <dia:attribute name="text_colour">
        <dia:color val="#000000"/>
      </dia:attribute>
      <dia:attribute name="line_colour">
        <dia:color val="#000000"/>
      </dia:attribute>
      <dia:attribute name="text">
        <dia:string>#referenzpunkte_messen#</dia:string>
      </dia:attribute>
      <dia:attribute name="type">
        <dia:enum val="4"/>
      </dia:attribute>
      <dia:attribute name="text_pos">
        <dia:point val="13.1631,16.5"/>
      </dia:attribute>
      <dia:connections>
        <dia:connection handle="0" to="O1" connection="28"/>
        <dia:connection handle="1" to="O3" connection="10"/>
      </dia:connections>
    </dia:object>
    <dia:object type="UML - Message" version="0" id="O6">
      <dia:attribute name="obj_pos">
        <dia:point val="4.6925,18"/>
      </dia:attribute>
      <dia:attribute name="obj_bb">
        <dia:rectangle val="4.6425,17.6;21.6837,18.7"/>
      </dia:attribute>
      <dia:attribute name="meta">
        <dia:composite type="dict"/>
      </dia:attribute>
      <dia:attribute name="conn_endpoints">
        <dia:point val="4.6925,18"/>
        <dia:point val="21.6337,18"/>
      </dia:attribute>
      <dia:attribute name="text_colour">
        <dia:color val="#000000"/>
      </dia:attribute>
      <dia:attribute name="line_colour">
        <dia:color val="#000000"/>
      </dia:attribute>
      <dia:attribute name="text">
        <dia:string>#messe_n_RefPunkte#</dia:string>
      </dia:attribute>
      <dia:attribute name="type">
        <dia:enum val="0"/>
      </dia:attribute>
      <dia:attribute name="text_pos">
        <dia:point val="13.1631,18.5"/>
      </dia:attribute>
      <dia:connections>
        <dia:connection handle="0" to="O1" connection="30"/>
        <dia:connection handle="1" to="O3" connection="12"/>
      </dia:connections>
    </dia:object>
    <dia:object type="UML - Object" version="0" id="O7">
      <dia:attribute name="obj_pos">
        <dia:point val="31,8"/>
      </dia:attribute>
      <dia:attribute name="obj_bb">
        <dia:rectangle val="30.95,7.95;33.975,9.85"/>
      </dia:attribute>
      <dia:attribute name="meta">
        <dia:composite type="dict"/>
      </dia:attribute>
      <dia:attribute name="elem_corner">
        <dia:point val="31,8"/>
      </dia:attribute>
      <dia:attribute name="elem_width">
        <dia:real val="2.9249999999999998"/>
      </dia:attribute>
      <dia:attribute name="elem_height">
        <dia:real val="1.8000000000000007"/>
      </dia:attribute>
      <dia:attribute name="line_width">
        <dia:real val="0.10000000000000001"/>
      </dia:attribute>
      <dia:attribute name="text_colour">
        <dia:color val="#000000"/>
      </dia:attribute>
      <dia:attribute name="line_colour">
        <dia:color val="#000000"/>
      </dia:attribute>
      <dia:attribute name="fill_colour">
        <dia:color val="#ffffff"/>
      </dia:attribute>
      <dia:attribute name="text">
        <dia:composite type="text">
          <dia:attribute name="string">
            <dia:string>#Model#</dia:string>
          </dia:attribute>
          <dia:attribute name="font">
            <dia:font family="sans" style="0" name="Helvetica"/>
          </dia:attribute>
          <dia:attribute name="height">
            <dia:real val="0.80000000000000004"/>
          </dia:attribute>
          <dia:attribute name="pos">
            <dia:point val="32.4625,9.095"/>
          </dia:attribute>
          <dia:attribute name="color">
            <dia:color val="#000000"/>
          </dia:attribute>
          <dia:attribute name="alignment">
            <dia:enum val="1"/>
          </dia:attribute>
        </dia:composite>
      </dia:attribute>
      <dia:attribute name="stereotype">
        <dia:string>##</dia:string>
      </dia:attribute>
      <dia:attribute name="exstate">
        <dia:string>##</dia:string>
      </dia:attribute>
      <dia:attribute name="attrib">
        <dia:composite type="text">
          <dia:attribute name="string">
            <dia:string>##</dia:string>
          </dia:attribute>
          <dia:attribute name="font">
            <dia:font family="sans" style="0" name="Helvetica"/>
          </dia:attribute>
          <dia:attribute name="height">
            <dia:real val="0.80000000000000004"/>
          </dia:attribute>
          <dia:attribute name="pos">
            <dia:point val="0,0"/>
          </dia:attribute>
          <dia:attribute name="color">
            <dia:color val="#000000"/>
          </dia:attribute>
          <dia:attribute name="alignment">
            <dia:enum val="0"/>
          </dia:attribute>
        </dia:composite>
      </dia:attribute>
      <dia:attribute name="is_active">
        <dia:boolean val="false"/>
      </dia:attribute>
      <dia:attribute name="show_attribs">
        <dia:boolean val="false"/>
      </dia:attribute>
      <dia:attribute name="multiple">
        <dia:boolean val="false"/>
      </dia:attribute>
    </dia:object>
    <dia:object type="UML - Lifeline" version="0" id="O8">
      <dia:attribute name="obj_pos">
        <dia:point val="32.4625,9.8"/>
      </dia:attribute>
      <dia:attribute name="obj_bb">
        <dia:rectangle val="32.0625,9.775;32.8625,35.025"/>
      </dia:attribute>
      <dia:attribute name="meta">
        <dia:composite type="dict"/>
      </dia:attribute>
      <dia:attribute name="conn_endpoints">
        <dia:point val="32.4625,9.8"/>
        <dia:point val="32.4625,35"/>
      </dia:attribute>
      <dia:attribute name="line_colour">
        <dia:color val="#000000"/>
      </dia:attribute>
      <dia:attribute name="fill_colour">
        <dia:color val="#ffffff"/>
      </dia:attribute>
      <dia:attribute name="rtop">
        <dia:real val="3.1999999999999993"/>
      </dia:attribute>
      <dia:attribute name="rbot">
        <dia:real val="23.199999999999999"/>
      </dia:attribute>
      <dia:attribute name="draw_focus">
        <dia:boolean val="true"/>
      </dia:attribute>
      <dia:attribute name="draw_cross">
        <dia:boolean val="false"/>
      </dia:attribute>
      <dia:attribute name="cpl_northwest">
        <dia:int val="9"/>
      </dia:attribute>
      <dia:attribute name="cpl_southwest">
        <dia:int val="9"/>
      </dia:attribute>
      <dia:attribute name="cpl_northeast">
        <dia:int val="9"/>
      </dia:attribute>
      <dia:attribute name="cpl_southeast">
        <dia:int val="9"/>
      </dia:attribute>
      <dia:connections>
        <dia:connection handle="0" to="O7" connection="6"/>
      </dia:connections>
    </dia:object>
    <dia:object type="UML - Message" version="0" id="O9">
      <dia:attribute name="obj_pos">
        <dia:point val="22.3338,14"/>
      </dia:attribute>
      <dia:attribute name="obj_bb">
        <dia:rectangle val="22.2838,13.6;32.1625,14.7"/>
      </dia:attribute>
      <dia:attribute name="meta">
        <dia:composite type="dict"/>
      </dia:attribute>
      <dia:attribute name="conn_endpoints">
        <dia:point val="22.3338,14"/>
        <dia:point val="32.1125,14"/>
      </dia:attribute>
      <dia:attribute name="text_colour">
        <dia:color val="#000000"/>
      </dia:attribute>
      <dia:attribute name="line_colour">
        <dia:color val="#000000"/>
      </dia:attribute>
      <dia:attribute name="text">
        <dia:string>#erzeugeEpoche#</dia:string>
      </dia:attribute>
      <dia:attribute name="type">
        <dia:enum val="0"/>
      </dia:attribute>
      <dia:attribute name="text_pos">
        <dia:point val="27.2231,14.5"/>
      </dia:attribute>
      <dia:connections>
        <dia:connection handle="0" to="O3" connection="26"/>
        <dia:connection handle="1" to="O8" connection="7"/>
      </dia:connections>
    </dia:object>
    <dia:object type="UML - Message" version="0" id="O10">
      <dia:attribute name="obj_pos">
        <dia:point val="22.3338,15"/>
      </dia:attribute>
      <dia:attribute name="obj_bb">
        <dia:rectangle val="22.2838,14.6;32.1625,15.7"/>
      </dia:attribute>
      <dia:attribute name="meta">
        <dia:composite type="dict"/>
      </dia:attribute>
      <dia:attribute name="conn_endpoints">
        <dia:point val="22.3338,15"/>
        <dia:point val="32.1125,15"/>
      </dia:attribute>
      <dia:attribute name="text_colour">
        <dia:color val="#000000"/>
      </dia:attribute>
      <dia:attribute name="line_colour">
        <dia:color val="#000000"/>
      </dia:attribute>
      <dia:attribute name="text">
        <dia:string>#erzeugeHalbsatz#</dia:string>
      </dia:attribute>
      <dia:attribute name="type">
        <dia:enum val="0"/>
      </dia:attribute>
      <dia:attribute name="text_pos">
        <dia:point val="27.2231,15.5"/>
      </dia:attribute>
      <dia:connections>
        <dia:connection handle="0" to="O3" connection="27"/>
        <dia:connection handle="1" to="O8" connection="8"/>
      </dia:connections>
    </dia:object>
    <dia:object type="UML - Message" version="0" id="O11">
      <dia:attribute name="obj_pos">
        <dia:point val="22.3338,19"/>
      </dia:attribute>
      <dia:attribute name="obj_bb">
        <dia:rectangle val="22.2838,18.6;32.1625,19.7"/>
      </dia:attribute>
      <dia:attribute name="meta">
        <dia:composite type="dict"/>
      </dia:attribute>
      <dia:attribute name="conn_endpoints">
        <dia:point val="22.3338,19"/>
        <dia:point val="32.1125,19"/>
      </dia:attribute>
      <dia:attribute name="text_colour">
        <dia:color val="#000000"/>
      </dia:attribute>
      <dia:attribute name="line_colour">
        <dia:color val="#000000"/>
      </dia:attribute>
      <dia:attribute name="text">
        <dia:string>#fügeZumHalbsatzHinzu#</dia:string>
      </dia:attribute>
      <dia:attribute name="type">
        <dia:enum val="0"/>
      </dia:attribute>
      <dia:attribute name="text_pos">
        <dia:point val="27.2231,19.5"/>
      </dia:attribute>
      <dia:connections>
        <dia:connection handle="0" to="O3" connection="31"/>
        <dia:connection handle="1" to="O8" connection="12"/>
      </dia:connections>
    </dia:object>
    <dia:object type="UML - Message" version="0" id="O12">
      <dia:attribute name="obj_pos">
        <dia:point val="4.6925,20"/>
      </dia:attribute>
      <dia:attribute name="obj_bb">
        <dia:rectangle val="4.6425,19.6;21.6837,20.7"/>
      </dia:attribute>
      <dia:attribute name="meta">
        <dia:composite type="dict"/>
      </dia:attribute>
      <dia:attribute name="conn_endpoints">
        <dia:point val="4.6925,20"/>
        <dia:point val="21.6337,20"/>
      </dia:attribute>
      <dia:attribute name="text_colour">
        <dia:color val="#000000"/>
      </dia:attribute>
      <dia:attribute name="line_colour">
        <dia:color val="#000000"/>
      </dia:attribute>
      <dia:attribute name="text">
        <dia:string>#referenzPunkte_fertig#</dia:string>
      </dia:attribute>
      <dia:attribute name="type">
        <dia:enum val="0"/>
      </dia:attribute>
      <dia:attribute name="text_pos">
        <dia:point val="13.1631,20.5"/>
      </dia:attribute>
      <dia:connections>
        <dia:connection handle="0" to="O1" connection="32"/>
        <dia:connection handle="1" to="O3" connection="14"/>
      </dia:connections>
    </dia:object>
    <dia:object type="UML - Message" version="0" id="O13">
      <dia:attribute name="obj_pos">
        <dia:point val="4.6925,22"/>
      </dia:attribute>
      <dia:attribute name="obj_bb">
        <dia:rectangle val="4.6425,21.6;21.6837,22.7"/>
      </dia:attribute>
      <dia:attribute name="meta">
        <dia:composite type="dict"/>
      </dia:attribute>
      <dia:attribute name="conn_endpoints">
        <dia:point val="4.6925,22"/>
        <dia:point val="21.6337,22"/>
      </dia:attribute>
      <dia:attribute name="text_colour">
        <dia:color val="#000000"/>
      </dia:attribute>
      <dia:attribute name="line_colour">
        <dia:color val="#000000"/>
      </dia:attribute>
      <dia:attribute name="text">
        <dia:string>#objektpunkte_messen#</dia:string>
      </dia:attribute>
      <dia:attribute name="type">
        <dia:enum val="4"/>
      </dia:attribute>
      <dia:attribute name="text_pos">
        <dia:point val="13.1631,22.5"/>
      </dia:attribute>
      <dia:connections>
        <dia:connection handle="0" to="O1" connection="3"/>
        <dia:connection handle="1" to="O3" connection="2"/>
      </dia:connections>
    </dia:object>
    <dia:object type="UML - Message" version="0" id="O14">
      <dia:attribute name="obj_pos">
        <dia:point val="22.3338,25"/>
      </dia:attribute>
      <dia:attribute name="obj_bb">
        <dia:rectangle val="22.2838,24.6;32.1625,25.7"/>
      </dia:attribute>
      <dia:attribute name="meta">
        <dia:composite type="dict"/>
      </dia:attribute>
      <dia:attribute name="conn_endpoints">
        <dia:point val="22.3338,25"/>
        <dia:point val="32.1125,25"/>
      </dia:attribute>
      <dia:attribute name="text_colour">
        <dia:color val="#000000"/>
      </dia:attribute>
      <dia:attribute name="line_colour">
        <dia:color val="#000000"/>
      </dia:attribute>
      <dia:attribute name="text">
        <dia:string>#fügeZumHalbsatzHinzu#</dia:string>
      </dia:attribute>
      <dia:attribute name="type">
        <dia:enum val="0"/>
      </dia:attribute>
      <dia:attribute name="text_pos">
        <dia:point val="27.2231,25.5"/>
      </dia:attribute>
      <dia:connections>
        <dia:connection handle="0" to="O3" connection="36"/>
        <dia:connection handle="1" to="O8" connection="17"/>
      </dia:connections>
    </dia:object>
    <dia:object type="UML - Message" version="0" id="O15">
      <dia:attribute name="obj_pos">
        <dia:point val="4.6925,24"/>
      </dia:attribute>
      <dia:attribute name="obj_bb">
        <dia:rectangle val="4.6425,23.6;21.6837,24.7"/>
      </dia:attribute>
      <dia:attribute name="meta">
        <dia:composite type="dict"/>
      </dia:attribute>
      <dia:attribute name="conn_endpoints">
        <dia:point val="4.6925,24"/>
        <dia:point val="21.6337,24"/>
      </dia:attribute>
      <dia:attribute name="text_colour">
        <dia:color val="#000000"/>
      </dia:attribute>
      <dia:attribute name="line_colour">
        <dia:color val="#000000"/>
      </dia:attribute>
      <dia:attribute name="text">
        <dia:string>#messe_n_ObjPunkte#</dia:string>
      </dia:attribute>
      <dia:attribute name="type">
        <dia:enum val="0"/>
      </dia:attribute>
      <dia:attribute name="text_pos">
        <dia:point val="13.1631,24.5"/>
      </dia:attribute>
      <dia:connections>
        <dia:connection handle="0" to="O1" connection="35"/>
        <dia:connection handle="1" to="O3" connection="17"/>
      </dia:connections>
    </dia:object>
    <dia:object type="UML - Message" version="0" id="O16">
      <dia:attribute name="obj_pos">
        <dia:point val="4.6925,26"/>
      </dia:attribute>
      <dia:attribute name="obj_bb">
        <dia:rectangle val="4.6425,25.6;21.6837,26.7"/>
      </dia:attribute>
      <dia:attribute name="meta">
        <dia:composite type="dict"/>
      </dia:attribute>
      <dia:attribute name="conn_endpoints">
        <dia:point val="4.6925,26"/>
        <dia:point val="21.6337,26"/>
      </dia:attribute>
      <dia:attribute name="text_colour">
        <dia:color val="#000000"/>
      </dia:attribute>
      <dia:attribute name="line_colour">
        <dia:color val="#000000"/>
      </dia:attribute>
      <dia:attribute name="text">
        <dia:string>#objektPunkte_fertig#</dia:string>
      </dia:attribute>
      <dia:attribute name="type">
        <dia:enum val="0"/>
      </dia:attribute>
      <dia:attribute name="text_pos">
        <dia:point val="13.1631,26.5"/>
      </dia:attribute>
      <dia:connections>
        <dia:connection handle="0" to="O1" connection="37"/>
        <dia:connection handle="1" to="O3" connection="19"/>
      </dia:connections>
    </dia:object>
    <dia:object type="UML - Message" version="0" id="O17">
      <dia:attribute name="obj_pos">
        <dia:point val="22.3338,27"/>
      </dia:attribute>
      <dia:attribute name="obj_bb">
        <dia:rectangle val="22.2838,26.6;32.1625,27.7"/>
      </dia:attribute>
      <dia:attribute name="meta">
        <dia:composite type="dict"/>
      </dia:attribute>
      <dia:attribute name="conn_endpoints">
        <dia:point val="22.3338,27"/>
        <dia:point val="32.1125,27"/>
      </dia:attribute>
      <dia:attribute name="text_colour">
        <dia:color val="#000000"/>
      </dia:attribute>
      <dia:attribute name="line_colour">
        <dia:color val="#000000"/>
      </dia:attribute>
      <dia:attribute name="text">
        <dia:string>#halbSatz_beenden#</dia:string>
      </dia:attribute>
      <dia:attribute name="type">
        <dia:enum val="0"/>
      </dia:attribute>
      <dia:attribute name="text_pos">
        <dia:point val="27.2231,27.5"/>
      </dia:attribute>
      <dia:connections>
        <dia:connection handle="0" to="O3" connection="38"/>
        <dia:connection handle="1" to="O8" connection="19"/>
      </dia:connections>
    </dia:object>
    <dia:object type="UML - Message" version="0" id="O18">
      <dia:attribute name="obj_pos">
        <dia:point val="22.3338,29"/>
      </dia:attribute>
      <dia:attribute name="obj_bb">
        <dia:rectangle val="22.2838,28.6;32.1625,29.7"/>
      </dia:attribute>
      <dia:attribute name="meta">
        <dia:composite type="dict"/>
      </dia:attribute>
      <dia:attribute name="conn_endpoints">
        <dia:point val="22.3338,29"/>
        <dia:point val="32.1125,29"/>
      </dia:attribute>
      <dia:attribute name="text_colour">
        <dia:color val="#000000"/>
      </dia:attribute>
      <dia:attribute name="line_colour">
        <dia:color val="#000000"/>
      </dia:attribute>
      <dia:attribute name="text">
        <dia:string>#autMessung2Halbsatz#</dia:string>
      </dia:attribute>
      <dia:attribute name="type">
        <dia:enum val="4"/>
      </dia:attribute>
      <dia:attribute name="text_pos">
        <dia:point val="27.2231,29.5"/>
      </dia:attribute>
      <dia:connections>
        <dia:connection handle="0" to="O3" connection="40"/>
        <dia:connection handle="1" to="O8" connection="21"/>
      </dia:connections>
    </dia:object>
    <dia:object type="UML - Message" version="0" id="O19">
      <dia:attribute name="obj_pos">
        <dia:point val="22.3338,31"/>
      </dia:attribute>
      <dia:attribute name="obj_bb">
        <dia:rectangle val="22.2838,30.6;32.1625,31.7"/>
      </dia:attribute>
      <dia:attribute name="meta">
        <dia:composite type="dict"/>
      </dia:attribute>
      <dia:attribute name="conn_endpoints">
        <dia:point val="22.3338,31"/>
        <dia:point val="32.1125,31"/>
      </dia:attribute>
      <dia:attribute name="text_colour">
        <dia:color val="#000000"/>
      </dia:attribute>
      <dia:attribute name="line_colour">
        <dia:color val="#000000"/>
      </dia:attribute>
      <dia:attribute name="text">
        <dia:string>#netzAusgleichung#</dia:string>
      </dia:attribute>
      <dia:attribute name="type">
        <dia:enum val="0"/>
      </dia:attribute>
      <dia:attribute name="text_pos">
        <dia:point val="27.2231,31.5"/>
      </dia:attribute>
      <dia:connections>
        <dia:connection handle="0" to="O3" connection="42"/>
        <dia:connection handle="1" to="O8" connection="23"/>
      </dia:connections>
    </dia:object>
  </dia:layer>
</dia:diagram>
